{
  "main": {
    "id": "df4671f41c107caa",
    "type": "split",
    "children": [
      {
        "id": "b464d4d12e4d67bc",
        "type": "tabs",
        "children": [
          {
            "id": "597012afd84c2104",
            "type": "leaf",
            "state": {
              "type": "markdown",
              "state": {
                "file": "lyrics/Monster.md",
                "mode": "source",
                "source": false
              }
            }
          }
        ]
      }
    ],
    "direction": "vertical"
  },
  "left": {
    "id": "92a3ffd70229287d",
    "type": "mobile-drawer",
    "children": [
      {
        "id": "df8817534028d4d6",
        "type": "leaf",
        "state": {
          "type": "file-explorer",
          "state": {
            "sortOrder": "alphabetical"
          }
        }
      },
      {
        "id": "3cc04af8f68f760f",
        "type": "leaf",
        "state": {
          "type": "search",
          "state": {
            "query": "",
            "matchingCase": false,
            "explainSearch": false,
            "collapseAll": false,
            "extraContext": false,
            "sortOrder": "alphabetical"
          }
        }
      },
      {
        "id": "2015f74c08346ca9",
        "type": "leaf",
        "state": {
          "type": "tag",
          "state": {
            "sortOrder": "frequency",
            "useHierarchy": true
          }
        }
      },
      {
        "id": "773f6de52a697ebf",
        "type": "leaf",
        "state": {
          "type": "starred",
          "state": {}
        }
      }
    ],
    "currentTab": 0
  },
  "right": {
    "id": "26af7b16e4e9b62e",
    "type": "mobile-drawer",
    "children": [
      {
        "id": "d258385ce16cb801",
        "type": "leaf",
        "state": {
          "type": "backlink",
          "state": {
            "file": "lyrics/Monster.md",
            "collapseAll": false,
            "extraContext": false,
            "sortOrder": "alphabetical",
            "showSearch": false,
            "searchQuery": "",
            "backlinkCollapsed": false,
            "unlinkedCollapsed": true
          }
        }
      },
      {
        "id": "515e3a70a2736f8d",
        "type": "leaf",
        "state": {
          "type": "outgoing-link",
          "state": {
            "file": "lyrics/Monster.md",
            "linksCollapsed": false,
            "unlinkedCollapsed": true
          }
        }
      },
      {
        "id": "1f4312e0fcbb3fc1",
        "type": "leaf",
        "state": {
          "type": "outline",
          "state": {
            "file": "lyrics/Monster.md"
          }
        }
      },
      {
        "id": "3fdbd601ae23537b",
        "type": "leaf",
        "state": {
          "type": "calendar",
          "state": {}
        }
      }
    ],
    "currentTab": 2
  },
  "left-ribbon": {
    "hiddenItems": {
      "homepage:Open homepage": false,
      "switcher:Open quick switcher": false,
      "graph:Open graph view": false,
      "canvas:Create new canvas": false,
      "templates:Insert template": false,
      "command-palette:Open command palette": false,
      "periodic-notes:Open today": false
    }
  },
  "active": "597012afd84c2104",
  "lastOpenFiles": [
    "Home.md",
    "lyrics/Monster.md",
    "todos/BookList.md",
    "blogs/BlogLists.md",
    "ai/resources.md",
    "ai/Introduction.md",
    "Semester II/_Semester II.md",
    "Void/Configuration/Firmware.md",
    "journal/daily/2023-01-12-Thursday.md",
    "blogs/BlogLists.sync-conflict-20230112-202626-V4YZDG7.md",
    "journal/weekly/2023-WEEK02.sync-conflict-20230112-202626-V4YZDG7.md"
  ]
}